…
beer<-projectjoin%>%group_by(country)%>%select(type,value,`Happiness Score`)%>%filter(type=="beer")%>%arrange(value)

## Adding missing grouping variables: `country`

wine<- projectjoin%>%group_by(country)%>%select(type,value,`Happiness Score`)%>%filter(type=="wine")%>%arrange(value)

## Adding missing grouping variables: `country`

spirit<- projectjoin%>%group_by(country)%>%select(type,value,`Happiness Score`)%>%filter(type=="spirit")%>%arrange(value)

## Adding missing grouping variables: `country`

beer%>%mutate(mean_value=mean(beer$value,na.rm=T))

## # A tibble: 145 x 5
## # Groups:   country [145]
##    country      type  value `Happiness Score` mean_value
##    <chr>        <chr> <dbl>             <dbl>      <dbl>
##  1 Afghanistan  beer      0              3.58       110.
##  2 Bangladesh   beer      0              4.69       110.
##  3 Iran         beer      0              4.69       110.
##  4 Kuwait       beer      0              6.30       110.
##  5 Libya        beer      0              5.75       110.
##  6 Mauritania   beer      0              4.44       110.
##  7 Pakistan     beer      0              5.19       110.
##  8 Saudi Arabia beer      0              6.41       110.
##  9 Comoros      beer      1              3.96       110.
## 10 Haiti        beer      1              4.52       110.
## # … with 135 more rows

wine%>%mutate(mean_value=mean(wine$value,na.rm=T))

## # A tibble: 145 x 5
## # Groups:   country [145]
##    country     type  value `Happiness Score` mean_value
##    <chr>       <chr> <dbl>             <dbl>      <dbl>
##  1 Afghanistan wine      0              3.58       55.7
##  2 Bangladesh  wine      0              4.69       55.7
##  3 Bhutan      wine      0              5.25       55.7
##  4 Burundi     wine      0              2.90       55.7
##  5 Ethiopia    wine      0              4.51       55.7
##  6 India       wine      0              4.57       55.7
##  7 Indonesia   wine      0              5.40       55.7
##  8 Iran        wine      0              4.69       55.7
##  9 Iraq        wine      0              4.68       55.7
## 10 Kuwait      wine      0              6.30       55.7
## # … with 135 more rows

spirit%>%mutate(mean_value=mean(spirit$value,na.rm=T))

## # A tibble: 145 x 5
## # Groups:   country [145]
##    country     type   value `Happiness Score` mean_value
##    <chr>       <chr>  <dbl>             <dbl>      <dbl>
##  1 Afghanistan spirit     0              3.58       77.5
##  2 Algeria     spirit     0              5.60       77.5
##  3 Bangladesh  spirit     0              4.69       77.5
##  4 Bhutan      spirit     0              5.25       77.5
##  5 Burundi     spirit     0              2.90       77.5
##  6 Guinea      spirit     0              3.66       77.5
##  7 Iran        spirit     0              4.69       77.5
##  8 Kuwait      spirit     0              6.30       77.5
##  9 Laos        spirit     0              4.88       77.5
## 10 Libya       spirit     0              5.75       77.5
## # … with 135 more rows
…
